{
  "modules": {
    "cce:/internal/x/cc": {
      "mTimestamp": 22175.295599997044,
      "chunkId": "cee638a986ad8fae09398db255647defcaa6612a",
      "imports": [
        {
          "value": "cce:/internal/x/cc-fu/base",
          "resolved": "__unresolved_0",
          "loc": {
            "start": {
              "line": 1,
              "column": 14
            },
            "end": {
              "line": 1,
              "column": 42
            }
          }
        },
        {
          "value": "cce:/internal/x/cc-fu/gfx-webgl",
          "resolved": "__unresolved_1",
          "loc": {
            "start": {
              "line": 2,
              "column": 14
            },
            "end": {
              "line": 2,
              "column": 47
            }
          }
        },
        {
          "value": "cce:/internal/x/cc-fu/gfx-webgl2",
          "resolved": "__unresolved_2",
          "loc": {
            "start": {
              "line": 3,
              "column": 14
            },
            "end": {
              "line": 3,
              "column": 48
            }
          }
        },
        {
          "value": "cce:/internal/x/cc-fu/gfx-empty",
          "resolved": "__unresolved_3",
          "loc": {
            "start": {
              "line": 4,
              "column": 14
            },
            "end": {
              "line": 4,
              "column": 47
            }
          }
        },
        {
          "value": "cce:/internal/x/cc-fu/3d",
          "resolved": "__unresolved_4",
          "loc": {
            "start": {
              "line": 5,
              "column": 14
            },
            "end": {
              "line": 5,
              "column": 40
            }
          }
        },
        {
          "value": "cce:/internal/x/cc-fu/animation",
          "resolved": "__unresolved_5",
          "loc": {
            "start": {
              "line": 6,
              "column": 14
            },
            "end": {
              "line": 6,
              "column": 47
            }
          }
        },
        {
          "value": "cce:/internal/x/cc-fu/skeletal-animation",
          "resolved": "__unresolved_6",
          "loc": {
            "start": {
              "line": 7,
              "column": 14
            },
            "end": {
              "line": 7,
              "column": 56
            }
          }
        },
        {
          "value": "cce:/internal/x/cc-fu/2d",
          "resolved": "__unresolved_7",
          "loc": {
            "start": {
              "line": 8,
              "column": 14
            },
            "end": {
              "line": 8,
              "column": 40
            }
          }
        },
        {
          "value": "cce:/internal/x/cc-fu/sorting",
          "resolved": "__unresolved_8",
          "loc": {
            "start": {
              "line": 9,
              "column": 14
            },
            "end": {
              "line": 9,
              "column": 45
            }
          }
        },
        {
          "value": "cce:/internal/x/cc-fu/ui",
          "resolved": "__unresolved_9",
          "loc": {
            "start": {
              "line": 10,
              "column": 14
            },
            "end": {
              "line": 10,
              "column": 40
            }
          }
        },
        {
          "value": "cce:/internal/x/cc-fu/particle",
          "resolved": "__unresolved_10",
          "loc": {
            "start": {
              "line": 11,
              "column": 14
            },
            "end": {
              "line": 11,
              "column": 46
            }
          }
        },
        {
          "value": "cce:/internal/x/cc-fu/particle-2d",
          "resolved": "__unresolved_11",
          "loc": {
            "start": {
              "line": 12,
              "column": 14
            },
            "end": {
              "line": 12,
              "column": 49
            }
          }
        },
        {
          "value": "cce:/internal/x/cc-fu/physics-framework",
          "resolved": "__unresolved_12",
          "loc": {
            "start": {
              "line": 13,
              "column": 14
            },
            "end": {
              "line": 13,
              "column": 55
            }
          }
        },
        {
          "value": "cce:/internal/x/cc-fu/physics-2d-framework",
          "resolved": "__unresolved_13",
          "loc": {
            "start": {
              "line": 14,
              "column": 14
            },
            "end": {
              "line": 14,
              "column": 58
            }
          }
        },
        {
          "value": "cce:/internal/x/cc-fu/intersection-2d",
          "resolved": "__unresolved_14",
          "loc": {
            "start": {
              "line": 15,
              "column": 14
            },
            "end": {
              "line": 15,
              "column": 53
            }
          }
        },
        {
          "value": "cce:/internal/x/cc-fu/primitive",
          "resolved": "__unresolved_15",
          "loc": {
            "start": {
              "line": 16,
              "column": 14
            },
            "end": {
              "line": 16,
              "column": 47
            }
          }
        },
        {
          "value": "cce:/internal/x/cc-fu/profiler",
          "resolved": "__unresolved_16",
          "loc": {
            "start": {
              "line": 17,
              "column": 14
            },
            "end": {
              "line": 17,
              "column": 46
            }
          }
        },
        {
          "value": "cce:/internal/x/cc-fu/geometry-renderer",
          "resolved": "__unresolved_17",
          "loc": {
            "start": {
              "line": 18,
              "column": 14
            },
            "end": {
              "line": 18,
              "column": 55
            }
          }
        },
        {
          "value": "cce:/internal/x/cc-fu/audio",
          "resolved": "__unresolved_18",
          "loc": {
            "start": {
              "line": 19,
              "column": 14
            },
            "end": {
              "line": 19,
              "column": 43
            }
          }
        },
        {
          "value": "cce:/internal/x/cc-fu/video",
          "resolved": "__unresolved_19",
          "loc": {
            "start": {
              "line": 20,
              "column": 14
            },
            "end": {
              "line": 20,
              "column": 43
            }
          }
        },
        {
          "value": "cce:/internal/x/cc-fu/xr",
          "resolved": "__unresolved_20",
          "loc": {
            "start": {
              "line": 21,
              "column": 14
            },
            "end": {
              "line": 21,
              "column": 40
            }
          }
        },
        {
          "value": "cce:/internal/x/cc-fu/light-probe",
          "resolved": "__unresolved_21",
          "loc": {
            "start": {
              "line": 22,
              "column": 14
            },
            "end": {
              "line": 22,
              "column": 49
            }
          }
        },
        {
          "value": "cce:/internal/x/cc-fu/terrain",
          "resolved": "__unresolved_22",
          "loc": {
            "start": {
              "line": 23,
              "column": 14
            },
            "end": {
              "line": 23,
              "column": 45
            }
          }
        },
        {
          "value": "cce:/internal/x/cc-fu/webview",
          "resolved": "__unresolved_23",
          "loc": {
            "start": {
              "line": 24,
              "column": 14
            },
            "end": {
              "line": 24,
              "column": 45
            }
          }
        },
        {
          "value": "cce:/internal/x/cc-fu/tween",
          "resolved": "__unresolved_24",
          "loc": {
            "start": {
              "line": 25,
              "column": 14
            },
            "end": {
              "line": 25,
              "column": 43
            }
          }
        },
        {
          "value": "cce:/internal/x/cc-fu/tiled-map",
          "resolved": "__unresolved_25",
          "loc": {
            "start": {
              "line": 26,
              "column": 14
            },
            "end": {
              "line": 26,
              "column": 47
            }
          }
        },
        {
          "value": "cce:/internal/x/cc-fu/spine",
          "resolved": "__unresolved_26",
          "loc": {
            "start": {
              "line": 27,
              "column": 14
            },
            "end": {
              "line": 27,
              "column": 43
            }
          }
        },
        {
          "value": "cce:/internal/x/cc-fu/dragon-bones",
          "resolved": "__unresolved_27",
          "loc": {
            "start": {
              "line": 28,
              "column": 14
            },
            "end": {
              "line": 28,
              "column": 50
            }
          }
        },
        {
          "value": "cce:/internal/x/cc-fu/custom-pipeline",
          "resolved": "__unresolved_28",
          "loc": {
            "start": {
              "line": 29,
              "column": 14
            },
            "end": {
              "line": 29,
              "column": 53
            }
          }
        }
      ],
      "type": "esm",
      "resolutions": [
        {
          "resolved": {
            "type": "external",
            "specifierOrURL": "cce:/internal/x/cc-fu/base"
          },
          "messages": []
        },
        {
          "resolved": {
            "type": "external",
            "specifierOrURL": "cce:/internal/x/cc-fu/gfx-webgl"
          },
          "messages": []
        },
        {
          "resolved": {
            "type": "external",
            "specifierOrURL": "cce:/internal/x/cc-fu/gfx-webgl2"
          },
          "messages": []
        },
        {
          "resolved": {
            "type": "external",
            "specifierOrURL": "cce:/internal/x/cc-fu/gfx-empty"
          },
          "messages": []
        },
        {
          "resolved": {
            "type": "external",
            "specifierOrURL": "cce:/internal/x/cc-fu/3d"
          },
          "messages": []
        },
        {
          "resolved": {
            "type": "external",
            "specifierOrURL": "cce:/internal/x/cc-fu/animation"
          },
          "messages": []
        },
        {
          "resolved": {
            "type": "external",
            "specifierOrURL": "cce:/internal/x/cc-fu/skeletal-animation"
          },
          "messages": []
        },
        {
          "resolved": {
            "type": "external",
            "specifierOrURL": "cce:/internal/x/cc-fu/2d"
          },
          "messages": []
        },
        {
          "resolved": {
            "type": "external",
            "specifierOrURL": "cce:/internal/x/cc-fu/sorting"
          },
          "messages": []
        },
        {
          "resolved": {
            "type": "external",
            "specifierOrURL": "cce:/internal/x/cc-fu/ui"
          },
          "messages": []
        },
        {
          "resolved": {
            "type": "external",
            "specifierOrURL": "cce:/internal/x/cc-fu/particle"
          },
          "messages": []
        },
        {
          "resolved": {
            "type": "external",
            "specifierOrURL": "cce:/internal/x/cc-fu/particle-2d"
          },
          "messages": []
        },
        {
          "resolved": {
            "type": "external",
            "specifierOrURL": "cce:/internal/x/cc-fu/physics-framework"
          },
          "messages": []
        },
        {
          "resolved": {
            "type": "external",
            "specifierOrURL": "cce:/internal/x/cc-fu/physics-2d-framework"
          },
          "messages": []
        },
        {
          "resolved": {
            "type": "external",
            "specifierOrURL": "cce:/internal/x/cc-fu/intersection-2d"
          },
          "messages": []
        },
        {
          "resolved": {
            "type": "external",
            "specifierOrURL": "cce:/internal/x/cc-fu/primitive"
          },
          "messages": []
        },
        {
          "resolved": {
            "type": "external",
            "specifierOrURL": "cce:/internal/x/cc-fu/profiler"
          },
          "messages": []
        },
        {
          "resolved": {
            "type": "external",
            "specifierOrURL": "cce:/internal/x/cc-fu/geometry-renderer"
          },
          "messages": []
        },
        {
          "resolved": {
            "type": "external",
            "specifierOrURL": "cce:/internal/x/cc-fu/audio"
          },
          "messages": []
        },
        {
          "resolved": {
            "type": "external",
            "specifierOrURL": "cce:/internal/x/cc-fu/video"
          },
          "messages": []
        },
        {
          "resolved": {
            "type": "external",
            "specifierOrURL": "cce:/internal/x/cc-fu/xr"
          },
          "messages": []
        },
        {
          "resolved": {
            "type": "external",
            "specifierOrURL": "cce:/internal/x/cc-fu/light-probe"
          },
          "messages": []
        },
        {
          "resolved": {
            "type": "external",
            "specifierOrURL": "cce:/internal/x/cc-fu/terrain"
          },
          "messages": []
        },
        {
          "resolved": {
            "type": "external",
            "specifierOrURL": "cce:/internal/x/cc-fu/webview"
          },
          "messages": []
        },
        {
          "resolved": {
            "type": "external",
            "specifierOrURL": "cce:/internal/x/cc-fu/tween"
          },
          "messages": []
        },
        {
          "resolved": {
            "type": "external",
            "specifierOrURL": "cce:/internal/x/cc-fu/tiled-map"
          },
          "messages": []
        },
        {
          "resolved": {
            "type": "external",
            "specifierOrURL": "cce:/internal/x/cc-fu/spine"
          },
          "messages": []
        },
        {
          "resolved": {
            "type": "external",
            "specifierOrURL": "cce:/internal/x/cc-fu/dragon-bones"
          },
          "messages": []
        },
        {
          "resolved": {
            "type": "external",
            "specifierOrURL": "cce:/internal/x/cc-fu/custom-pipeline"
          },
          "messages": []
        }
      ]
    },
    "cce:/internal/x/prerequisite-imports": {
      "mTimestamp": 18997634.25239998,
      "chunkId": "6324fd7f2a6a90bef45040fcb7ce34af0ba6a7d3",
      "imports": [
        {
          "value": "file:///C:/Cocos/Minesweeper2D/assets/scripts/GameManager.ts",
          "resolved": "__unresolved_0",
          "loc": {
            "start": {
              "line": 5,
              "column": 35
            },
            "end": {
              "line": 5,
              "column": 97
            }
          }
        },
        {
          "value": "file:///C:/ProgramData/cocos/editors/Creator/3.8.0/resources/resources/3d/engine/editor/assets/tools/debug-view-runtime-control.ts",
          "resolved": "__unresolved_1",
          "loc": {
            "start": {
              "line": 5,
              "column": 113
            },
            "end": {
              "line": 5,
              "column": 245
            }
          }
        }
      ],
      "type": "esm",
      "resolutions": [
        {
          "resolved": {
            "type": "module",
            "url": "file:///C:/Cocos/Minesweeper2D/assets/scripts/GameManager.ts"
          },
          "messages": []
        },
        {
          "resolved": {
            "type": "module",
            "url": "file:///C:/ProgramData/cocos/editors/Creator/3.8.0/resources/resources/3d/engine/editor/assets/tools/debug-view-runtime-control.ts"
          },
          "messages": []
        }
      ]
    },
    "file:///C:/ProgramData/cocos/editors/Creator/3.8.0/resources/resources/3d/engine/editor/assets/tools/debug-view-runtime-control.ts": {
      "mTimestamp": {
        "mtime": 1694772647524.5496,
        "uuid": "b2bd1fa7-8d7c-49c5-a158-df29a6d3a594"
      },
      "chunkId": "1feb0183e1ee4ce1428ca0c6a426a91db556c845",
      "imports": [
        {
          "value": "cc"
        },
        {
          "value": "cc"
        },
        {
          "value": "cc",
          "loc": {
            "start": {
              "line": 1,
              "column": 220
            },
            "end": {
              "line": 1,
              "column": 224
            }
          }
        }
      ],
      "type": "esm",
      "resolutions": [
        {
          "resolved": {
            "type": "module",
            "url": "cce:/internal/x/cc"
          },
          "messages": []
        },
        {
          "resolved": {
            "type": "module",
            "url": "cce:/internal/x/cc"
          },
          "messages": []
        },
        {
          "resolved": {
            "type": "module",
            "url": "cce:/internal/x/cc"
          },
          "messages": []
        }
      ]
    },
    "file:///C:/Cocos/Minesweeper2D/assets/scripts/GameManager.ts": {
      "mTimestamp": {
        "mtime": 1697448980577.2534,
        "uuid": "70dbd912-ff09-4a01-8130-881e08dc9525"
      },
      "chunkId": "17df4eb56f384552a6aa3e4f5977f11bcd00bce7",
      "imports": [
        {
          "value": "cce:/internal/code-quality/cr.mjs",
          "resolved": "__unresolved_0"
        },
        {
          "value": "cc"
        },
        {
          "value": "cc"
        },
        {
          "value": "cc",
          "loc": {
            "start": {
              "line": 1,
              "column": 166
            },
            "end": {
              "line": 1,
              "column": 170
            }
          }
        },
        {
          "value": "moment",
          "loc": {
            "start": {
              "line": 2,
              "column": 19
            },
            "end": {
              "line": 2,
              "column": 27
            }
          }
        }
      ],
      "type": "esm",
      "resolutions": [
        {
          "resolved": {
            "type": "module",
            "url": "cce:/internal/code-quality/cr.mjs"
          },
          "messages": []
        },
        {
          "resolved": {
            "type": "module",
            "url": "cce:/internal/x/cc"
          },
          "messages": []
        },
        {
          "resolved": {
            "type": "module",
            "url": "cce:/internal/x/cc"
          },
          "messages": []
        },
        {
          "resolved": {
            "type": "module",
            "url": "cce:/internal/x/cc"
          },
          "messages": []
        },
        {
          "resolved": {
            "type": "module",
            "url": "file:///C:/Cocos/Minesweeper2D/node_modules/moment/moment.mjs?cjs=&original=.js"
          },
          "messages": []
        }
      ]
    },
    "cce:/internal/code-quality/cr.mjs": {
      "mTimestamp": 1697430069261,
      "chunkId": "be027f973d8ff1c6fe3dcfebbc993118a793ec1b",
      "imports": [],
      "type": "esm",
      "resolutions": []
    },
    "file:///C:/Cocos/Minesweeper2D/node_modules/moment/moment.mjs?cjs=&original=.js": {
      "mTimestamp": 1697431099686.1335,
      "chunkId": "21e5efad5a65008f178b0324e4d05a94a75f843a",
      "imports": [
        {
          "value": "./moment.js",
          "resolved": "__unresolved_0",
          "loc": {
            "start": {
              "line": 2,
              "column": 36
            },
            "end": {
              "line": 2,
              "column": 49
            }
          }
        },
        {
          "value": "cce:/internal/ml/cjs-loader.mjs",
          "resolved": "__unresolved_1",
          "loc": {
            "start": {
              "line": 3,
              "column": 19
            },
            "end": {
              "line": 3,
              "column": 52
            }
          }
        },
        {
          "value": "./moment.js",
          "resolved": "__unresolved_2",
          "loc": {
            "start": {
              "line": 8,
              "column": 14
            },
            "end": {
              "line": 8,
              "column": 27
            }
          }
        },
        {
          "value": "./moment.js",
          "resolved": "__unresolved_3",
          "loc": {
            "start": {
              "line": 9,
              "column": 29
            },
            "end": {
              "line": 9,
              "column": 42
            }
          }
        }
      ],
      "type": "esm",
      "resolutions": [
        {
          "resolved": {
            "type": "module",
            "url": "file:///C:/Cocos/Minesweeper2D/node_modules/moment/moment.js"
          },
          "messages": []
        },
        {
          "resolved": {
            "type": "module",
            "url": "cce:/internal/ml/cjs-loader.mjs"
          },
          "messages": []
        },
        {
          "resolved": {
            "type": "module",
            "url": "file:///C:/Cocos/Minesweeper2D/node_modules/moment/moment.js"
          },
          "messages": []
        },
        {
          "resolved": {
            "type": "module",
            "url": "file:///C:/Cocos/Minesweeper2D/node_modules/moment/moment.js"
          },
          "messages": []
        }
      ]
    },
    "file:///C:/Cocos/Minesweeper2D/node_modules/moment/moment.js": {
      "mTimestamp": 1697431099686.1335,
      "chunkId": "eec946724de1f657430747bb758b798c72b1930e",
      "imports": [
        {
          "value": "cce:/internal/ml/cjs-loader.mjs",
          "resolved": "__unresolved_0",
          "loc": {
            "start": {
              "line": 1,
              "column": 23
            },
            "end": {
              "line": 1,
              "column": 56
            }
          }
        }
      ],
      "type": "commonjs",
      "resolutions": [
        {
          "resolved": {
            "type": "module",
            "url": "cce:/internal/ml/cjs-loader.mjs"
          },
          "messages": []
        }
      ]
    },
    "cce:/internal/ml/cjs-loader.mjs": {
      "mTimestamp": 1697430069261,
      "chunkId": "e22b6f02adf5d686a7ebd142d6b23614b189f373",
      "imports": [],
      "type": "esm",
      "resolutions": []
    }
  }
}
